PK,SVM Classification,Distance,Within 500 nt?,Within 150 nt?,Further than 1000 nt?
1,1,138,1,1,0
2,1,22,1,1,0
3,1,21,1,1,0
4,1,-18,1,1,0
5,1,21,1,1,0
6,1,-10,1,1,0
7,1,24,1,1,0
8,1,-130,1,1,0
9,1,-9,1,1,0
10,1,-16,1,1,0
